[
  {"roomNumber": 1, "nPeople": 2, "nStorage" : 1},
  {"roomNumber": 2, "nPeople": 2, "nStorage" : 0},
  {"roomNumber": 3, "nPeople": 1, "nStorage" : 2},
  {"roomNumber": 4, "nPeople": 1, "nStorage" : 0}
]

